^D:\COURSES\CTU\B202\AIM\VIDEOABSTRACTION\VIDEOABSTRACTION\MAIN.CPP
D:\COURSES\CTU\B202\AIM\VIDEOABSTRACTION\VIDEOABSTRACTION\X64\RELEASE\VC142.PDB
D:\COURSES\CTU\B202\AIM\VIDEOABSTRACTION\VIDEOABSTRACTION\X64\RELEASE\MAIN.OBJ
